%!Adobe-FontList 1.14
%Locale:0x419

%BeginFont
Handler:DirectoryHandler
FontType:TrueType
FontName:Cambria
FamilyName:Cambria
StyleName:Regular
MenuName:Cambria
StyleBits:0
WeightClass:400
WidthClass:5
AngleClass:0
FullName:Cambria
WritingScript:Roman
OutlineFileName:\cambria.ttc
TTCOffset:32
DataFormat:sfntData
FileLength:1090432
FileModTime:1159855828
%EndFont

%BeginFont
Handler:DirectoryHandler
FontType:TrueType
FontName:CambriaMath
FamilyName:Cambria Math
StyleName:Regular
MenuName:Cambria Math
StyleBits:0
WeightClass:400
WidthClass:5
AngleClass:0
FullName:Cambria Math
WritingScript:Roman
OutlineFileName:\cambria.ttc
TTCOffset:364
DataFormat:sfntData
FileLength:1090432
FileModTime:1159855828
%EndFont

%BeginFont
Handler:DirectoryHandler
FontType:TrueType
FontName:CharisSIL-Italic
FamilyName:Charis SIL
StyleName:Italic
MenuName:Charis SIL
StyleBits:1
WeightClass:400
WidthClass:5
AngleClass:1
FullName:Charis SIL Italic
WritingScript:Roman
OutlineFileName:\CharisSIL-I.ttf
DataFormat:sfntData
FileLength:1510100
FileModTime:1414088364
%EndFont

%BeginFont
Handler:DirectoryHandler
FontType:TrueType
FontName:CharisSIL
FamilyName:Charis SIL
StyleName:Regular
MenuName:Charis SIL
StyleBits:0
WeightClass:400
WidthClass:5
AngleClass:0
FullName:Charis SIL
WritingScript:Roman
OutlineFileName:\CharisSIL-R.ttf
DataFormat:sfntData
FileLength:1508296
FileModTime:1414082684
%EndFont

%BeginFont
Handler:DirectoryHandler
FontType:TrueType
FontName:Georgia-Italic
FamilyName:Georgia
StyleName:Italic
MenuName:Georgia
StyleBits:1
WeightClass:400
WidthClass:5
AngleClass:1
FullName:Georgia Italic
WritingScript:Roman
OutlineFileName:\Georgia Italic.ttf
DataFormat:sfntData
FileLength:400624
FileModTime:1420309309
%EndFont

%BeginFont
Handler:DirectoryHandler
FontType:TrueType
FontName:Georgia
FamilyName:Georgia
StyleName:Regular
MenuName:Georgia
StyleBits:0
WeightClass:400
WidthClass:5
AngleClass:0
FullName:Georgia
WritingScript:Roman
OutlineFileName:\Georgia.ttf
DataFormat:sfntData
FileLength:379588
FileModTime:1420309309
%EndFont

%BeginFont
Handler:DirectoryHandler
FontType:TrueType
FontName:Georgia-Bold
FamilyName:Georgia
StyleName:Bold
MenuName:Georgia
StyleBits:2
WeightClass:700
WidthClass:5
AngleClass:0
FullName:Georgia Bold
WritingScript:Roman
OutlineFileName:\georgiab.ttf
DataFormat:sfntData
FileLength:145940
FileModTime:1244679970
%EndFont

%BeginFont
Handler:DirectoryHandler
FontType:TrueType
FontName:Georgia-BoldItalic
FamilyName:Georgia
StyleName:Bold Italic
MenuName:Georgia
StyleBits:3
WeightClass:700
WidthClass:5
AngleClass:1
FullName:Georgia Bold Italic
WritingScript:Roman
OutlineFileName:\georgiaz.ttf
DataFormat:sfntData
FileLength:164332
FileModTime:1244679970
%EndFont

%BeginFont
Handler:DirectoryHandler
FontType:TrueType
FontName:GitaBold
FamilyName:Gita
StyleName:Bold
MenuName:Gita
StyleBits:2
WeightClass:700
WidthClass:5
AngleClass:0
FullName:Gita Bold
WritingScript:Roman
OutlineFileName:\gita_b.ttf
DataFormat:sfntData
FileLength:83126
FileModTime:1459425841
%EndFont

%BeginFont
Handler:DirectoryHandler
FontType:TrueType
FontName:GitaItalic
FamilyName:Gita
StyleName:Italic
MenuName:Gita
StyleBits:1
WeightClass:400
WidthClass:5
AngleClass:0
FullName:Gita Italic
WritingScript:Roman
OutlineFileName:\gita_i.ttf
DataFormat:sfntData
FileLength:98058
FileModTime:956517612
%EndFont

%BeginFont
Handler:DirectoryHandler
FontType:TrueType
FontName:Indevr20
FamilyName:Indevr
StyleName:20
MenuName:Indevr
StyleBits:0
WeightClass:400
WidthClass:5
AngleClass:0
FullName:Indevr 20
WritingScript:Roman
OutlineFileName:\Indevr_20.ttf
DataFormat:sfntData
FileLength:54172
FileModTime:1457528017
%EndFont

%BeginFont
Handler:DirectoryHandler
FontType:TrueType
FontName:Times-Roman
FamilyName:Times
StyleName:Regular
MenuName:Times
StyleBits:0
WeightClass:400
WidthClass:5
AngleClass:0
FullName:Times Roman
WritingScript:Roman
OutlineFileName:\Times.dfont
DataFormat:sfntResource
ResourceID:13494
FileLength:1743667
FileModTime:1420309321
%EndFont

%BeginFont
Handler:DirectoryHandler
FontType:TrueType
FontName:Times-Bold
FamilyName:Times
StyleName:Bold
MenuName:Times
StyleBits:2
WeightClass:700
WidthClass:5
AngleClass:0
FullName:Times Bold
WritingScript:Roman
OutlineFileName:\Times.dfont
DataFormat:sfntResource
ResourceID:16697
FileLength:1743667
FileModTime:1420309321
%EndFont

%BeginFont
Handler:DirectoryHandler
FontType:TrueType
FontName:Times-Italic
FamilyName:Times
StyleName:Italic
MenuName:Times
StyleBits:1
WeightClass:400
WidthClass:5
AngleClass:1
FullName:Times Italic
WritingScript:Roman
OutlineFileName:\Times.dfont
DataFormat:sfntResource
ResourceID:21585
FileLength:1743667
FileModTime:1420309321
%EndFont

%BeginFont
Handler:DirectoryHandler
FontType:TrueType
FontName:Times-BoldItalic
FamilyName:Times
StyleName:Bold Italic
MenuName:Times
StyleBits:3
WeightClass:700
WidthClass:5
AngleClass:1
FullName:Times Bold Italic
WritingScript:Roman
OutlineFileName:\Times.dfont
DataFormat:sfntResource
ResourceID:22219
FileLength:1743667
FileModTime:1420309321
%EndFont

%BeginFont
Handler:DirectoryHandler
FontType:Suitcase
FontName:Times-Roman
OutlineFileName:\Times.dfont
ResourceID:20
MacStyle:0
FileLength:1743667
FileModTime:1420309321
%EndFont

%BeginFont
Handler:DirectoryHandler
FontType:Suitcase
FontName:Times-Bold
OutlineFileName:\Times.dfont
ResourceID:20
MacStyle:1
FileLength:1743667
FileModTime:1420309321
%EndFont

%BeginFont
Handler:DirectoryHandler
FontType:Suitcase
FontName:Times-Italic
OutlineFileName:\Times.dfont
ResourceID:20
MacStyle:2
FileLength:1743667
FileModTime:1420309321
%EndFont

%BeginFont
Handler:DirectoryHandler
FontType:Suitcase
FontName:Times-BoldItalic
OutlineFileName:\Times.dfont
ResourceID:20
MacStyle:3
FileLength:1743667
FileModTime:1420309321
%EndFont

